{
  "settings": {
    "is_develop": false,
    "ask_feedback": true,
    "feedback_form_url": "https://forms.yandex.ru/u/5de681dc127e5b04cec4fce5/",
    "utc": 3
  },
  "db_settings": {
    "user": "jwiicrurpgxwhe",
    "host": "ec2-176-34-183-20.eu-west-1.compute.amazonaws.com",
    "database": "db15sk2819v3nm",
    "password": "d3fbe935f37628faaa0027b07b141a34fe0549c7d8f920256bd7032a32c2c2a3",
    "port": 5432,
    "ssl": true,
    "schema": "main",
    "chats_table_title": "chats_cache",
    "schedules_table_title": "schedules",
    "chats_info_table_title": "chats_info",
    "chats_statistic_table_title": "chats_statistic"
  },
  "regex_patterns": {
    "universal_command_of_schedule": "^/schedule_([^_]+)(_((not-)?actual))?(_(.+))?$",
    "group_number": "^([а-яА-Я]{3,6}-\\d-\\d)$|^(\\d{3}-\\d{3})$|^(\\d{2}[а-яА-Я]-\\d{3})|([а-яА-Я\\d]{7}-\\d)$"
  },
  "Telegram_Bot": {
    "token": "992466332:AAHD94LTOAhV03IDXqPw1cFJ6BbzQfd4QDA",
    "token_develop": "992566208:AAEBscd-E3atNJfNQSKDZlhjCmhV7vOUQjc",
    "text_formatting_type": "HTML",
    "messages": {
      "welcome": "Добро пожаловать в расписание Московского политеха!",
      "no_pairs_on_day": "В этот день нет пар :)",
      "no_pairs_on_today": "На сегодня пары закончились",
      "group_search_failure": "Группа не найдена. Попробуйте еще раз",
      "incorrect_input_data": "Некорректные данные",
      "load_schedule_from_server_process": "Подгружаем расписание с сервера...",
      "load_group_list_from_server_process": "Подгружаем список групп с сервера...",
      "load_from_server_failure": "Не удалось загрузить данные с сервера. Сожалеем :(",
      "prompt_to_enter_group_number": "Введите номер учебной группы",
      "prompt_to_choice_group_number": ", или выберите из предложенных",
      "welcome_to_main_menu": "Привет :) Ты в группе {group_number}. \nВыбери расписание или другую опцию",
      "show_detail_schedule": "Полное расписание",
      "prompt_to_enter_weekday": "Выбери день недели",
      "close_group_schedule": "Расписание закрыто",
      "unauthorized": "Вы не авторизованы",
      "feedback": "Пожалуйста, заполните опрос. Любые ваши пожелания и замечания учтутся разработчиком. \n{url}"
    }
  },
  "console_log_messages": {
    "schedule_sent": "@{username} looks {is_actual} schedule {group_number} group {on}"
  },
  "Puppeteer": {
    "browser_args": {
      "args": ["--no-sandbox", "--disable-setuid-sandbox"]
    }
  },
  "MosPolytech": {
    "schedule_source_url": "https://rasp.dmami.ru",
    "group_list_url": "https://rasp.dmami.ru/groups-list.json",
    "schedule_life_time": 10080,
    "group_list_life_time": 43200
  },
  "HTML_Selector": {
    "schedule_week": ".schedule-week",
    "schedule_day": ".schedule-day",
    "weekday_title": ".schedule-day__title",
    "schedule_pairs": ".pairs",
    "schedule_pair": ".pair",
    "pair_time": ".time",
    "pair_lessons": ".lessons",
    "pair_lesson": ".schedule-lesson",
    "pair_lesson_title": ".bold",
    "pair_lesson_auditory": ".schedule-auditory",
    "pair_lesson_teacher": ".teacher",
    "pair_lesson_dates": ".schedule-dates"
  },
  "enums": {
    "weekdays": [
      {"sm": "mon", "en": "Monday", "ru": "Понедельник"},
      {"sm": "tue", "en": "Tuesday", "ru": "Вторник"},
      {"sm": "wed", "en": "Wednesday", "ru": "Среда"},
      {"sm": "thu", "en": "Thursday", "ru": "Четверг"},
      {"sm": "fri", "en": "Friday", "ru": "Пятница"},
      {"sm": "sat", "en": "Saturday", "ru": "Суббота"},
      {"sm": "sun", "en": "Sunday", "ru": "Воскресенье"}
    ],
    "months": [
      {"sm_ru": "янв", "en": "January", "ru": "Январь", "ru_gen": "Января"},
      {"sm_ru": "фев", "en": "February", "ru": "Февраль", "ru_gen": "Февраля"},
      {"sm_ru": "мар", "en": "March", "ru": "Март", "ru_gen": "Марта"},
      {"sm_ru": "апр", "en": "April", "ru": "Апрель", "ru_gen": "Апреля"},
      {"sm_ru": "май", "en": "May", "ru": "Май", "ru_gen": "Мая"},
      {"sm_ru": "июн", "en": "June", "ru": "Июнь", "ru_gen": "Июня"},
      {"sm_ru": "июл", "en": "July", "ru": "Июль", "ru_gen": "Июля"},
      {"sm_ru": "авг", "en": "August", "ru": "Август", "ru_gen": "Августа"},
      {"sm_ru": "сен", "en": "September", "ru": "Сентябрь", "ru_gen": "Сентября"},
      {"sm_ru": "окт", "en": "October", "ru": "Октябрь", "ru_gen": "Октября"},
      {"sm_ru": "ноя", "en": "November", "ru": "Ноябрь", "ru_gen": "Ноября"},
      {"sm_ru": "дек", "en": "December", "ru": "Декабрь", "ru_gen": "Декабря"}
    ],
    "states": [
      "INACTIVE",
      "ENTER_GROUP",
      "MAIN_MENU",
      "CHOICE_WEEKDAY"
    ],
    "main_menu_buttons": {
      "ON_TODAY": "На сегодня",
      "ON_TOMORROW": "На завтра",
      "ON_WEEKDAY": "На день недели",
      "ON_WEEK": "На неделю",
      "ON_DATE": "На дату",
      "GENERAL": "Общее расписание",
      "CHANGE_GROUP": "Сменить группу",
      "SEND_FEEDBACK": "Обратная связь"
    },
    "bot_commands": {
      "START": "/start",
      "SCHEDULE": "/schedule",
      "CHANGE_GROUP": "/change_group"
    }
  }
}
